{
	"detailsInfo": [{
		"productName": "[【可拍照天文望远镜】SUNCORE舜光 ...]等2种商品 订单号59879472292",
		"orderUrl": "http://order.jd.com/center/itemPage.action?orderid\u003d59879472292\u0026PassKey\u003dD26CE95F293F3ECFBD1DFD0247247C3D",
		"orderAmount": 68.7100,
		"loanAmountDiscount": 0.0000,
		"sysCode": 1,
		"bizCode": 1,
		"consumerDate": "2017-08-02 10:10:49",
		"orderId": "59879472292"
	}, {
		"productName": "[西部数据(WD)蓝盘 1TB SATA6...]等2种商品 订单号60088159767",
		"orderUrl": "http://order.jd.com/center/itemPage.action?orderid\u003d60088159767\u0026PassKey\u003d27FA351A7784CF20834D0A16D8866657",
		"orderAmount": 295.7300,
		"loanAmountDiscount": 0.0000,
		"sysCode": 1,
		"bizCode": 1,
		"consumerDate": "2017-07-28 21:27:45",
		"orderId": "60088159767"
	}, {
		"productName": "[蒙奇奇 手机壳保护套防摔后盖 适用于华为...]等2种商品 订单号59822743440",
		"orderUrl": "http://order.jd.com/center/itemPage.action?orderid\u003d59822743440\u0026PassKey\u003d73B6C5E9D0EF5AADCA5CE7F56DA72CD5",
		"orderAmount": 50.9000,
		"loanAmountDiscount": 0.0000,
		"sysCode": 1,
		"bizCode": 1,
		"consumerDate": "2017-07-09 00:41:27",
		"orderId": "59822743440"
	}, {
		"productName": "[飞利浦（PHILIPS）耳机 耳麦 电脑...]1种商品 订单号59363714334",
		"orderUrl": "http://order.jd.com/center/itemPage.action?orderid\u003d59363714334\u0026PassKey\u003d7E60F0588ECD98F0BE0973E48D629518",
		"orderAmount": 106.0000,
		"loanAmountDiscount": 0.0000,
		"sysCode": 1,
		"bizCode": 1,
		"consumerDate": "2017-06-27 16:23:35",
		"orderId": "59363714334"
	}, {
		"productName": "[蒙牛早餐奶核桃味250ml*24盒4月份...]等2种商品 订单号53856173385",
		"orderUrl": "http://order.jd.com/center/itemPage.action?orderid\u003d53856173385\u0026PassKey\u003dCC12B7DF9B41019D074FC895A0493A1F",
		"orderAmount": 114.6100,
		"loanAmountDiscount": 0.0000,
		"sysCode": 1,
		"bizCode": 1,
		"consumerDate": "2017-05-08 12:47:17",
		"orderId": "53856173385"
	}, {
		"productName": "[江西移动手机话费充值100元 快充]1种商品 订单号53813401637",
		"orderUrl": "http://order.jd.com/center/itemPage.action?orderid\u003d53813401637\u0026PassKey\u003dB3275BCE834035AAD181993612D6DDF2",
		"orderAmount": 88.0500,
		"loanAmountDiscount": 0.0000,
		"sysCode": 1,
		"bizCode": 1,
		"consumerDate": "2017-05-07 12:36:38",
		"orderId": "53813401637"
	}, {
		"productName": "[Apple iPhone 6s Plus...]1种商品 订单号51974976343",
		"orderUrl": "http://order.jd.com/center/itemPage.action?orderid\u003d51974976343\u0026PassKey\u003dB5B28EBE72478B74A82968FA3E811AA8",
		"orderAmount": 4099.0000,
		"loanAmountDiscount": 0.0000,
		"sysCode": 1,
		"bizCode": 1,
		"consumerDate": "2017-05-02 20:57:54",
		"orderId": "51974976343"
	}, {
		"productName": "[海尔（Haier）FSJ4098B 五叶...]1种商品 订单号53211702469",
		"orderUrl": "http://order.jd.com/center/itemPage.action?orderid\u003d53211702469\u0026PassKey\u003d5797091745D66649067C8762DF87E169",
		"orderAmount": 109.0000,
		"loanAmountDiscount": 0.0000,
		"sysCode": 1,
		"bizCode": 1,
		"consumerDate": "2017-04-18 20:02:52",
		"orderId": "53211702469"
	}, {
		"productName": "[小米 红米 Note 4X 全网通版 3...]1种商品 订单号50699003326",
		"orderUrl": "http://order.jd.com/center/itemPage.action?orderid\u003d50699003326\u0026PassKey\u003d764F295062B6CB9F13771CD9E09D729A",
		"orderAmount": 999.0000,
		"loanAmountDiscount": 0.0000,
		"sysCode": 1,
		"bizCode": 1,
		"consumerDate": "2017-03-27 13:17:25",
		"orderId": "50699003326"
	}, {
		"productName": "[大脚象（DAJIAOXIANG） A4H...]等3种商品 订单号47139443997",
		"orderUrl": "http://order.jd.com/center/itemPage.action?orderid\u003d47139443997\u0026PassKey\u003d4C311C810B6264A94E462EE9C2CE250C",
		"orderAmount": 106.3000,
		"loanAmountDiscount": 0.0000,
		"sysCode": 1,
		"bizCode": 1,
		"consumerDate": "2016-12-23 01:10:18",
		"orderId": "47139443997"
	}],
	"pageSize": 10,
	"pageNum": 1,
	"totalCount": 14,
	"pageCount": 2
}